module gitlab.com/wirawirw/aksara-cli

go 1.17

require (
	github.com/jinzhu/inflection v1.0.0
	github.com/labstack/echo/v4 v4.7.2
	github.com/spf13/cobra v1.4.0
)

require (
	github.com/inconshreveable/mousetrap v1.0.0 // indirect
	github.com/labstack/gommon v0.3.1 // indirect
	github.com/mattn/go-colorable v0.1.11 // indirect
	github.com/mattn/go-isatty v0.0.14 // indirect
	github.com/sirupsen/logrus v1.9.0 // indirect
	github.com/spf13/pflag v1.0.5 // indirect
	github.com/valyala/bytebufferpool v1.0.0 // indirect
	github.com/valyala/fasttemplate v1.2.1 // indirect
	golang.org/x/crypto v0.0.0-20210817164053-32db794688a5 // indirect
	golang.org/x/net v0.0.0-20211015210444-4f30a5c0130f // indirect
	golang.org/x/sys v0.0.0-20220715151400-c0bba94af5f8 // indirect
	golang.org/x/text v0.3.7 // indirect
)
