{
  "model_path": "example/model",
  "result_path": "modules",
  "module_name": "gitlab.com/wirawirw/aksara-cli",
  "module_traits": [
    {
      "name": "~service~ repository",
      "dir": "~result_path~/~service~/~service~_repository",
      "template": "template/repository_interfaces.text",
      "file_name": "~service~.go",
      "meta": {
        "import_request": "~module_name~/~result_path~/~service~/~service~_request"
      }
    },
    {
      "name": "~service~ request",
      "dir": "~result_path~/~service~/~service~_request",
      "template": "template/request.text",
      "file_name": "~service~_request.go",
      "meta": {}
    },
    {
      "name": "~service~ usecase",
      "dir": "~result_path~/~service~/~service~_usecase",
      "template": "template/usecase.text",
      "file_name": "~service~_usecase.go",
      "meta": {}
    }
  ]
}